92bf8af	Hinloon	Fri Mar 30 18:57:44 2018	Rerouting done
c03c916	Hinloon	Fri Mar 30 18:54:15 2018	Routes fixed
07986a2	Hinloon	Fri Mar 30 18:45:25 2018	Preparing for deploying to Heroku
3b5e613	Hinloon	Fri Mar 30 18:36:01 2018	search text
9289971	Hinloon	Fri Mar 30 15:55:36 2018	force push
7228c64	Hinloon	Thu Mar 29 20:52:31 2018	Login stage one
19de6e7	Hinloon	Thu Mar 29 16:33:19 2018	Users complete
87f3af8	Hinloon	Wed Mar 28 23:49:55 2018	modeling-users
a63b968	Hinloon	Wed Mar 28 16:47:19 2018	users
d224966	Hinloon	Tue Mar 27 18:58:15 2018	modeling-users
557c2df	Hinloon	Wed Mar 21 19:47:55 2018	charts
a89cfa3	Hinloon	Wed Mar 21 19:01:08 2018	create bootstrap layout
8e8f429	Hinloon	Tue Mar 20 19:58:30 2018	altering README file
ae7c802	Hinloon	Tue Mar 20 18:24:52 2018	Initialize repository